<!-- Generator: Adobe Illustrator 16.0.4, SVG Export Plug-In . SVG Version: 6.00 Build 0)  -->
<!DOCTYPE svg PUBLIC "-//W3C//DTD SVG 1.1//EN" "http://www.w3.org/Graphics/SVG/1.1/DTD/svg11.dtd">
<svg version="1.1" xmlns="http://www.w3.org/2000/svg" xmlns:xlink="http://www.w3.org/1999/xlink" x="0px" y="0px"
	 width="18.458px" height="18.458px" viewBox="0 0 18.458 18.458" style="enable-background:new 0 0 18.458 18.458;"
	 xml:space="preserve">
<g id="About_x5F_Icon">
	<path style="fill:#AC9732;" d="M10.191,9.012c0.12,0.329,0.243,0.673,0.371,1.034H8.184c0.131-0.359,0.26-0.703,0.387-1.03
		s0.242-0.628,0.345-0.9C9.018,7.843,9.11,7.603,9.19,7.395c0.081-0.208,0.142-0.372,0.184-0.493C9.423,7.02,9.489,7.183,9.57,7.391
		c0.081,0.208,0.175,0.448,0.282,0.72S10.072,8.684,10.191,9.012z M18.458,9.229c0,5.098-4.132,9.229-9.229,9.229S0,14.326,0,9.229
		C0,4.132,4.132,0,9.229,0S18.458,4.132,18.458,9.229z M13.627,13.334c-0.312-0.896-0.61-1.724-0.892-2.484
		c-0.281-0.76-0.557-1.476-0.825-2.147c-0.27-0.672-0.537-1.31-0.803-1.914c-0.265-0.604-0.534-1.194-0.807-1.77H8.525
		c-0.281,0.576-0.552,1.166-0.812,1.77S7.188,8.03,6.918,8.702C6.65,9.374,6.375,10.09,6.094,10.85
		c-0.281,0.761-0.578,1.589-0.891,2.484h1.944c0.091-0.287,0.189-0.583,0.295-0.888s0.21-0.609,0.315-0.912h3.248
		c0.105,0.302,0.212,0.605,0.318,0.909c0.106,0.305,0.205,0.602,0.299,0.891H13.627z"/>
	<path style="fill:#FFFFFF;" d="M11.91,8.702c-0.27-0.672-0.537-1.31-0.803-1.914c-0.265-0.604-0.534-1.194-0.807-1.77H8.525
		c-0.281,0.576-0.552,1.166-0.812,1.77S7.188,8.03,6.918,8.702C6.65,9.374,6.375,10.09,6.094,10.85
		c-0.281,0.761-0.578,1.589-0.891,2.484h1.944c0.091-0.287,0.189-0.583,0.295-0.888s0.21-0.609,0.315-0.912h3.248
		c0.105,0.302,0.212,0.605,0.318,0.909c0.106,0.305,0.205,0.602,0.299,0.891h2.004c-0.312-0.896-0.61-1.724-0.892-2.484
		C12.454,10.09,12.179,9.374,11.91,8.702z M8.184,10.046c0.131-0.359,0.26-0.703,0.387-1.03s0.242-0.628,0.345-0.9
		C9.018,7.843,9.11,7.603,9.19,7.395c0.081-0.208,0.142-0.372,0.184-0.493C9.423,7.02,9.489,7.183,9.57,7.391
		c0.081,0.208,0.175,0.448,0.282,0.72s0.22,0.573,0.339,0.901c0.12,0.329,0.243,0.673,0.371,1.034H8.184z"/>
</g>
<g id="Layer_1">
</g>
</svg>
