<?xml version="1.0" encoding="iso-8859-1"?>
<!-- Generator: Adobe Illustrator 16.0.4, SVG Export Plug-In . SVG Version: 6.00 Build 0)  -->
<!DOCTYPE svg PUBLIC "-//W3C//DTD SVG 1.1//EN" "http://www.w3.org/Graphics/SVG/1.1/DTD/svg11.dtd">
<svg version="1.1" xmlns="http://www.w3.org/2000/svg" xmlns:xlink="http://www.w3.org/1999/xlink" x="0px" y="0px"
	 width="18.457px" height="18.458px" viewBox="0 0 18.457 18.458" style="enable-background:new 0 0 18.457 18.458;"
	 xml:space="preserve">
<g id="Work_x5F_Icon">
	<path d="M9.229,0C4.132,0,0,4.132,0,9.229c0,5.098,4.132,9.229,9.229,9.229s9.228-4.132,9.228-9.229C18.457,4.132,14.326,0,9.229,0
		z M13.871,9.607c-0.365,1.432-0.762,2.792-1.188,4.081h-1.713c-0.279-0.768-0.551-1.574-0.814-2.418s-0.523-1.69-0.778-2.539
		c-0.256,0.848-0.513,1.695-0.769,2.539s-0.524,1.65-0.805,2.418H6.093c-0.426-1.289-0.821-2.648-1.187-4.081
		c-0.365-1.432-0.688-2.844-0.97-4.236h2.028c0.08,0.472,0.168,0.962,0.265,1.47c0.097,0.508,0.197,1.019,0.302,1.53
		C6.635,8.883,6.742,9.379,6.85,9.859s0.219,0.924,0.332,1.333c0.145-0.393,0.285-0.809,0.421-1.249S7.871,9.063,8,8.623
		c0.128-0.44,0.246-0.864,0.354-1.272C8.462,6.943,8.56,6.579,8.648,6.259h1.596c0.096,0.328,0.201,0.698,0.316,1.11
		c0.117,0.412,0.24,0.838,0.373,1.278c0.131,0.44,0.266,0.88,0.4,1.32c0.137,0.44,0.268,0.848,0.396,1.225
		c0.104-0.408,0.211-0.853,0.318-1.333c0.109-0.48,0.211-0.976,0.307-1.488c0.098-0.512,0.191-1.022,0.285-1.53
		c0.092-0.508,0.178-0.998,0.258-1.47h1.945C14.562,6.763,14.238,8.175,13.871,9.607z"/>
</g>
<g id="Layer_1">
</g>
</svg>
